<svg width="12" height="11" viewBox="0 0 12 11" fill="none" xmlns="http://www.w3.org/2000/svg">
<path d="M6.00033 0.166687L5.06033 1.10669L8.78032 4.83335H0.666992V6.16669H8.78032L5.06033 9.89335L6.00033 10.8334L11.3337 5.50002L6.00033 0.166687Z" fill="white"/>
</svg>
